%YAML 1.1
%TAG !u! tag:unity3d.com,2011:
--- !u!1045 &1
EditorBuildSettings:
  m_ObjectHideFlags: 0
  serializedVersion: 2
  m_Scenes:
  - enabled: 1
    path: Assets/ProjektJeden.unity
    guid: 51d8ff980f9f215479f5a1d3f398e1fe
  m_configObjects: {}
